---
http_interactions:
- request:
    method: get
    uri: http://pokeapi.co/api/v2/ability/?limit=20&offset=20
    body:
      encoding: US-ASCII
      string: ''
    headers:
      User-Agent:
      - Faraday v0.9.2
      Accept-Encoding:
      - gzip;q=1.0,deflate;q=0.6,identity;q=0.3
      Accept:
      - "*/*"
  response:
    status:
      code: 200
      message: OK
    headers:
      Date:
      - Sat, 30 Apr 2016 02:30:07 GMT
      Content-Type:
      - application/json
      Transfer-Encoding:
      - chunked
      Connection:
      - keep-alive
      Set-Cookie:
      - __cfduid=d66139dafd71fb35b07dec68487bbbac01461983405; expires=Sun, 30-Apr-17
        02:30:05 GMT; path=/; domain=.pokeapi.co; HttpOnly
      Vary:
      - Cookie
      X-Frame-Options:
      - SAMEORIGIN
      Allow:
      - GET, HEAD, OPTIONS
      Server:
      - cloudflare-nginx
      Cf-Ray:
      - 29b791ddb669109f-ORD
    body:
      encoding: ASCII-8BIT
      string: '{"count":251,"next":"http://pokeapi.co/api/v2/ability/?limit=20&offset=40","previous":"http://pokeapi.co/api/v2/ability/?limit=20","results":[{"name":"suction-cups","url":"http://pokeapi.co/api/v2/ability/21/"},{"name":"intimidate","url":"http://pokeapi.co/api/v2/ability/22/"},{"name":"shadow-tag","url":"http://pokeapi.co/api/v2/ability/23/"},{"name":"rough-skin","url":"http://pokeapi.co/api/v2/ability/24/"},{"name":"wonder-guard","url":"http://pokeapi.co/api/v2/ability/25/"},{"name":"levitate","url":"http://pokeapi.co/api/v2/ability/26/"},{"name":"effect-spore","url":"http://pokeapi.co/api/v2/ability/27/"},{"name":"synchronize","url":"http://pokeapi.co/api/v2/ability/28/"},{"name":"clear-body","url":"http://pokeapi.co/api/v2/ability/29/"},{"name":"natural-cure","url":"http://pokeapi.co/api/v2/ability/30/"},{"name":"lightning-rod","url":"http://pokeapi.co/api/v2/ability/31/"},{"name":"serene-grace","url":"http://pokeapi.co/api/v2/ability/32/"},{"name":"swift-swim","url":"http://pokeapi.co/api/v2/ability/33/"},{"name":"chlorophyll","url":"http://pokeapi.co/api/v2/ability/34/"},{"name":"illuminate","url":"http://pokeapi.co/api/v2/ability/35/"},{"name":"trace","url":"http://pokeapi.co/api/v2/ability/36/"},{"name":"huge-power","url":"http://pokeapi.co/api/v2/ability/37/"},{"name":"poison-point","url":"http://pokeapi.co/api/v2/ability/38/"},{"name":"inner-focus","url":"http://pokeapi.co/api/v2/ability/39/"},{"name":"magma-armor","url":"http://pokeapi.co/api/v2/ability/40/"}]}'
    http_version: 
  recorded_at: Sat, 30 Apr 2016 02:30:08 GMT
recorded_with: VCR 3.0.1
