---
http_interactions:
- request:
    method: get
    uri: http://pokeapi.co/api/v2/ability/?limit=5&offset=0
    body:
      encoding: US-ASCII
      string: ''
    headers:
      User-Agent:
      - Faraday v0.9.2
      Accept-Encoding:
      - gzip;q=1.0,deflate;q=0.6,identity;q=0.3
      Accept:
      - "*/*"
  response:
    status:
      code: 200
      message: OK
    headers:
      Date:
      - Sat, 30 Apr 2016 02:36:15 GMT
      Content-Type:
      - application/json
      Transfer-Encoding:
      - chunked
      Connection:
      - keep-alive
      Set-Cookie:
      - __cfduid=d10ad5512ff07776e88d0b5c523a011731461983774; expires=Sun, 30-Apr-17
        02:36:14 GMT; path=/; domain=.pokeapi.co; HttpOnly
      Vary:
      - Cookie
      X-Frame-Options:
      - SAMEORIGIN
      Allow:
      - GET, HEAD, OPTIONS
      Server:
      - cloudflare-nginx
      Cf-Ray:
      - 29b79adf07f60430-ORD
    body:
      encoding: ASCII-8BIT
      string: '{"count":251,"next":"http://pokeapi.co/api/v2/ability/?limit=5&offset=5","previous":null,"results":[{"name":"stench","url":"http://pokeapi.co/api/v2/ability/1/"},{"name":"drizzle","url":"http://pokeapi.co/api/v2/ability/2/"},{"name":"speed-boost","url":"http://pokeapi.co/api/v2/ability/3/"},{"name":"battle-armor","url":"http://pokeapi.co/api/v2/ability/4/"},{"name":"sturdy","url":"http://pokeapi.co/api/v2/ability/5/"}]}'
    http_version: 
  recorded_at: Sat, 30 Apr 2016 02:36:15 GMT
recorded_with: VCR 3.0.1
